fsm/simulation/qsim/fsm.msim.vcd
$comment
	File created using the following command:
		vcd file fsm.msim.vcd -direction
$end
$date
	Mon Mar 04 20:43:41 2019
$end
$version
	ModelSim Version 10.4d
$end
$timescale
	1ps
$end

$scope module fsm_vlg_vec_tst $end
$var reg 1 ! clk $end
$var reg 1 " data_valid $end
$var reg 9 # length [8:0] $end
$var reg 1 $ reset $end
$var wire 1 % clr $end
$var wire 1 & current_state [2] $end
$var wire 1 ' current_state [1] $end
$var wire 1 ( current_state [0] $end
$var wire 1 ) enable $end
$var wire 1 * trellis_enable $end

$scope module i1 $end
$var wire 1 + gnd $end
$var wire 1 , vcc $end
$var wire 1 - unknown $end
$var tri1 1 . devclrn $end
$var tri1 1 / devpor $end
$var tri1 1 0 devoe $end
$var wire 1 1 enable~output_o $end
$var wire 1 2 trellis_enable~output_o $end
$var wire 1 3 current_state[0]~output_o $end
$var wire 1 4 current_state[1]~output_o $end
$var wire 1 5 current_state[2]~output_o $end
$var wire 1 6 clr~output_o $end
$var wire 1 7 clk~input_o $end
$var wire 1 8 clk~inputclkctrl_outclk $end
$var wire 1 9 reset~input_o $end
$var wire 1 : data_valid~input_o $end
$var wire 1 ; Add0~0_combout $end
$var wire 1 < length_counter~19_combout $end
$var wire 1 = length_counter[8]~16_combout $end
$var wire 1 > Add0~1 $end
$var wire 1 ? Add0~2_combout $end
$var wire 1 @ length_counter~26_combout $end
$var wire 1 A Add0~3 $end
$var wire 1 B Add0~4_combout $end
$var wire 1 C length_counter~23_combout $end
$var wire 1 D Add0~5 $end
$var wire 1 E Add0~6_combout $end
$var wire 1 F length_counter~22_combout $end
$var wire 1 G Add0~7 $end
$var wire 1 H Add0~8_combout $end
$var wire 1 I length_counter~21_combout $end
$var wire 1 J Add0~9 $end
$var wire 1 K Add0~10_combout $end
$var wire 1 L length_counter~20_combout $end
$var wire 1 M LessThan1~0_combout $end
$var wire 1 N length[8]~input_o $end
$var wire 1 O length_counter[8]~14_combout $end
$var wire 1 P length_counter~17_combout $end
$var wire 1 Q Add0~11 $end
$var wire 1 R Add0~13 $end
$var wire 1 S Add0~14_combout $end
$var wire 1 T length_counter~18_combout $end
$var wire 1 U Add0~15 $end
$var wire 1 V Add0~16_combout $end
$var wire 1 W length_counter~24_combout $end
$var wire 1 X length[7]~input_o $end
$var wire 1 Y length[6]~input_o $end
$var wire 1 Z length[5]~input_o $end
$var wire 1 [ length[4]~input_o $end
$var wire 1 \ length[3]~input_o $end
$var wire 1 ] length[2]~input_o $end
$var wire 1 ^ length[1]~input_o $end
$var wire 1 _ length[0]~input_o $end
$var wire 1 ` LessThan0~1_cout $end
$var wire 1 a LessThan0~3_cout $end
$var wire 1 b LessThan0~5_cout $end
$var wire 1 c LessThan0~7_cout $end
$var wire 1 d LessThan0~9_cout $end
$var wire 1 e LessThan0~11_cout $end
$var wire 1 f LessThan0~13_cout $end
$var wire 1 g LessThan0~15_cout $end
$var wire 1 h LessThan0~16_combout $end
$var wire 1 i length_counter[8]~15_combout $end
$var wire 1 j Add0~12_combout $end
$var wire 1 k length_counter~25_combout $end
$var wire 1 l LessThan1~1_combout $end
$var wire 1 m current_state[0]~0_combout $end
$var wire 1 n current_state[0]~1_combout $end
$var wire 1 o current_state[0]~2_combout $end
$var wire 1 p current_state[0]~reg0_q $end
$var wire 1 q current_state[1]~3_combout $end
$var wire 1 r current_state[1]~reg0_q $end
$var wire 1 s enable~0_combout $end
$var wire 1 t enable~1_combout $end
$var wire 1 u enable~2_combout $end
$var wire 1 v enable~reg0_q $end
$var wire 1 w trellis_enable~0_combout $end
$var wire 1 x trellis_enable~1_combout $end
$var wire 1 y trellis_enable~2_combout $end
$var wire 1 z trellis_enable~reg0_q $end
$var wire 1 { length_counter [8] $end
$var wire 1 | length_counter [7] $end
$var wire 1 } length_counter [6] $end
$var wire 1 ~ length_counter [5] $end
$var wire 1 !! length_counter [4] $end
$var wire 1 "! length_counter [3] $end
$var wire 1 #! length_counter [2] $end
$var wire 1 $! length_counter [1] $end
$var wire 1 %! length_counter [0] $end
$upscope $end
$upscope $end
$enddefinitions $end
#0
$dumpvars
0!
0"
b1000 #
0$
0%
x(
x'
0&
x)
x*
0+
1,
x-
1.
1/
10
x1
x2
x3
x4
05
06
07
x8
09
0:
x;
x<
x=
x>
x?
x@
xA
xB
xC
xD
xE
xF
xG
xH
xI
xJ
xK
xL
xM
0N
xO
xP
xQ
xR
xS
xT
xU
xV
xW
0X
0Y
0Z
0[
1\
0]
0^
0_
x`
xa
xb
xc
xd
xe
xf
xg
xh
xi
xj
xk
xl
xm
xn
xo
0p
xq
0r
xs
xt
xu
0v
xw
xx
xy
0z
0%!
0$!
0#!
0"!
0!!
0~
0}
0|
0{
$end
#173
08
#762
0>
#789
0D
#797
0x
#808
1;
#912
1U
#976
0R
#1005
0J
#1015
0l
#1062
0O
#1070
1w
#1078
0@
#1089
0W
#1090
0F
#1120
1A
#1143
1G
#1163
0y
#1179
0C
#1196
0k
#1204
0I
#1205
0L
#1232
0M
#1274
0?
#1301
0E
#1306
1Q
#1424
0V
#1488
0S
#1517
0K
#1632
0B
#1655
0H
#1818
0j
#1855
0T
#1906
0P
#2037
0s
#2117
1i
#3593
02
0*
#3625
0t
#3697
01
0)
#3794
1m
#3826
04
0'
#3837
0=
#3926
0`
#3948
0c
#3992
1a
0u
#4014
1d
#4030
1<
#4058
0b
#4080
0e
#4146
1f
#4212
0g
#4284
1n
#4633
0q
#4637
0o
#4748
1h
#5494
03
0(
#10000
1!
#10730
17
#10917
18
#20000
0!
#20836
07
#21009
08
#30000
1!
#30730
17
#30917
18
#40000
0!
#40836
07
#41009
08
#50000
1!
#50730
17
#50917
18
#60000
0!
#60836
07
#61009
08
#70000
1!
#70730
17
#70917
18
#80000
1"
0!
#80639
1:
#80836
07
#81009
08
#83995
1t
#84160
1=
#84174
0m
#84355
1u
#84689
0n
#85080
1q
#85084
1o
#90000
1!
#90730
17
#90917
18
#93290
1r
#93296
1%!
#93719
0q
#93720
1p
1v
#94017
1m
#94028
0;
#94041
0t
#94112
1>
#94161
0u
#94235
0o
#94304
0w
#94308
1O
#94424
1u
#94463
1t
#94474
1q
#94479
1n
#94494
1s
#94587
1w
#94648
1?
#94660
0<
#94807
0u
#94838
0t
#94848
1o
#95138
1P
#95221
1u
#95712
1@
#97148
14
1'
#97471
11
1)
#99169
13
1(
#100000
0!
#100836
07
#101009
08
#110000
1!
#110730
17
#110917
18
#113288
1$!
#113296
0%!
#114058
0>
#114104
1;
#114701
1<
#120000
0!
#120836
07
#121009
08
#130000
1!
#130730
17
#130917
18
#133296
1%!
#134028
0;
#134112
1>
#134178
0A
#134624
0?
#134660
0<
#134714
1B
#135203
1C
#135672
0@
#140000
0!
#140836
07
#141009
08
#150000
1!
#150730
17
#150917
18
#153288
0$!
#153296
0%!
1#!
#154052
0B
#154058
0>
#154104
1;
#154126
1D
#154408
1A
#154474
0D
#154502
1M
#154568
0C
#154701
1<
#154869
0m
#154944
1B
#155433
1C
#160000
0!
#160836
07
#161009
08
#170000
1!
#170730
17
#170917
18
#173296
1%!
#174028
0;
#174112
1>
#174648
1?
#174660
0<
#175712
1@
#180000
0!
#180836
07
#181009
08
#190000
1!
#190730
17
#190917
18
#193288
1$!
#193296
0%!
#194058
0>
#194104
1;
#194701
1<
#200000
0!
#200836
07
#201009
08
#210000
1!
#210730
17
#210917
18
#213296
1%!
#214028
0;
#214112
1>
#214178
0A
#214244
1D
#214624
0?
#214660
0<
#214690
0B
#214780
1E
#215206
0C
#215672
0@
#215836
1F
#220000
0"
0!
#220745
0:
#220836
07
#221009
08
#230000
1!
#230730
17
#230917
18
#233288
0$!
1"!
#233296
0%!
0#!
#234058
0>
#234085
0D
#234104
1;
#234119
1c
#234134
1B
#234185
0d
#234251
1e
#234317
0f
#234383
1g
#234408
1A
#234623
1C
#234701
1<
#234895
0h
#234920
0B
#235309
0i
#235436
0C
#235483
0s
#235484
0n
#235663
1y
#235863
0o
#235866
1t
#235898
0F
#235953
0<
#236210
0u
#240000
0!
#240836
07
#241009
08
#250000
1!
#250730
17
#250917
18
#253288
0"!
#253720
0p
0v
#253727
1z
#254078
0c
#254144
1d
#254210
0e
#254276
1f
#254288
0M
#254342
0g
#254361
0E
#254454
1x
#254602
0t
#254605
1s
#254608
0w
#254609
0q
#254693
1m
#254878
1h
#254965
1t
#254969
0P
#255127
1P
#255151
0s
#255173
1i
#255183
1n
#255518
0t
#255548
1q
#255819
1<
#257347
12
1*
#257417
01
0)
#259214
03
0(
#260000
0!
#260836
07
#261009
08
#270000
1"
1!
#270639
1:
#270730
17
#270917
18
#273296
1%!
#274028
0;
#274112
1>
#274648
1?
#274660
0<
#275712
1@
#280000
0!
#280836
07
#281009
08
#290000
1!
#290730
17
#290917
18
#293288
1$!
#293296
0%!
#294058
0>
#294104
1;
#294701
1<
#300000
0!
#300836
07
#301009
08
#310000
1!
#310730
17
#310917
18
#313296
1%!
#314028
0;
#314112
1>
#314178
0A
#314624
0?
#314660
0<
#314714
1B
#315203
1C
#315672
0@
#320000
0!
#320836
07
#321009
08
#330000
1!
#330730
17
#330917
18
#333288
0$!
#333296
0%!
1#!
#334052
0B
#334058
0>
#334104
1;
#334126
1D
#334408
1A
#334474
0D
#334502
1M
#334568
0C
#334701
1<
#334869
0m
#334944
1B
#335325
0P
0x
#335367
1s
#335380
0i
#335384
0n
#335433
1C
#335691
0y
#335727
1t
#335759
0q
#336024
0<
0C
#340000
0!
#340836
07
#341009
08
#350000
1!
#350730
17
#350917
18
#353290
0r
#353296
0#!
#353699
1q
#353727
0z
#354141
0B
#354230
1u
#354291
1o
#354352
0O
#354357
1<
#354360
1w
#354528
0M
#355391
0s
#355413
1i
#357116
04
0'
#357320
02
0*
#360000
0!
#360836
07
#361009
08
#370000
1!
#370730
17
#370917
18
#373290
1r
#373296
1%!
#373719
0q
#373720
1p
1v
#374017
1m
#374028
0;
#374041
0t
#374112
1>
#374161
0u
#374235
0o
#374304
0w
#374308
1O
#374424
1u
#374463
1t
#374474
1q
#374479
1n
#374494
1s
#374587
1w
#374648
1?
#374660
0<
#374807
0u
#374838
0t
#374848
1o
#375138
1P
#375221
1u
#375712
1@
#377148
14
1'
#377471
11
1)
#379169
13
1(
#380000
0!
#380836
07
#381009
08
#390000
1!
#390730
17
#390917
18
#393288
1$!
#393296
0%!
#394058
0>
#394104
1;
#394701
1<
#400000
0!
#400836
07
#401009
08
#410000
1!
#410730
17
#410917
18
#413296
1%!
#414028
0;
#414112
1>
#414178
0A
#414624
0?
#414660
0<
#414714
1B
#415203
1C
#415672
0@
#420000
0!
#420836
07
#421009
08
#430000
1!
#430730
17
#430917
18
#433288
0$!
#433296
0%!
1#!
#434052
0B
#434058
0>
#434104
1;
#434126
1D
#434408
1A
#434474
0D
#434502
1M
#434568
0C
#434701
1<
#434869
0m
#434944
1B
#435433
1C
#440000
0!
#440836
07
#441009
08
#450000
1!
#450730
17
#450917
18
#453296
1%!
#454028
0;
#454112
1>
#454648
1?
#454660
0<
#455712
1@
#460000
0!
#460836
07
#461009
08
#470000
1!
#470730
17
#470917
18
#473288
1$!
#473296
0%!
#474058
0>
#474104
1;
#474701
1<
#480000
0!
#480836
07
#481009
08
#490000
1!
#490730
17
#490917
18
#493296
1%!
#494028
0;
#494112
1>
#494178
0A
#494244
1D
#494624
0?
#494660
0<
#494690
0B
#494780
1E
#495206
0C
#495672
0@
#495836
1F
#500000
0!
#500836
07
#501009
08
#510000
1!
#510730
17
#510917
18
#513288
0$!
1"!
#513296
0%!
0#!
#514058
0>
#514085
0D
#514104
1;
#514119
1c
#514134
1B
#514185
0d
#514251
1e
#514317
0f
#514383
1g
#514408
1A
#514623
1C
#514701
1<
#514895
0h
#514920
0B
#515309
0i
#515436
0C
#515483
0s
#515484
0n
#515663
1y
#515863
0o
#515866
1t
#515898
0F
#515953
0<
#516210
0u
#520000
0!
#520836
07
#521009
08
#530000
1!
#530730
17
#530917
18
#533288
0"!
#533720
0p
0v
#533727
1z
#534078
0c
#534144
1d
#534210
0e
#534276
1f
#534288
0M
#534342
0g
#534361
0E
#534454
1x
#534602
0t
#534605
1s
#534608
0w
#534609
0q
#534693
1m
#534878
1h
#534965
1t
#534969
0P
#535127
1P
#535151
0s
#535173
1i
#535183
1n
#535518
0t
#535548
1q
#535819
1<
#537347
12
1*
#537417
01
0)
#539214
03
0(
#540000
0!
#540836
07
#541009
08
#550000
1!
#550730
17
#550917
18
#553296
1%!
#554028
0;
#554112
1>
#554648
1?
#554660
0<
#555712
1@
#560000
0!
#560836
07
#561009
08
#570000
1!
#570730
17
#570917
18
#573288
1$!
#573296
0%!
#574058
0>
#574104
1;
#574701
1<
#580000
0!
#580836
07
#581009
08
#590000
1!
#590730
17
#590917
18
#593296
1%!
#594028
0;
#594112
1>
#594178
0A
#594624
0?
#594660
0<
#594714
1B
#595203
1C
#595672
0@
#600000
0!
#600836
07
#601009
08
#610000
1!
#610730
17
#610917
18
#613288
0$!
#613296
0%!
1#!
#614052
0B
#614058
0>
#614104
1;
#614126
1D
#614408
1A
#614474
0D
#614502
1M
#614568
0C
#614701
1<
#614869
0m
#614944
1B
#615325
0P
0x
#615367
1s
#615380
0i
#615384
0n
#615433
1C
#615691
0y
#615727
1t
#615759
0q
#616024
0<
0C
#620000
0!
#620836
07
#621009
08
#630000
1!
#630730
17
#630917
18
#633290
0r
#633296
0#!
#633699
1q
#633727
0z
#634141
0B
#634230
1u
#634291
1o
#634352
0O
#634357
1<
#634360
1w
#634528
0M
#635391
0s
#635413
1i
#637116
04
0'
#637320
02
0*
#640000
0!
#640836
07
#641009
08
#650000
1!
#650730
17
#650917
18
#653290
1r
#653296
1%!
#653719
0q
#653720
1p
1v
#654017
1m
#654028
0;
#654041
0t
#654112
1>
#654161
0u
#654235
0o
#654304
0w
#654308
1O
#654424
1u
#654463
1t
#654474
1q
#654479
1n
#654494
1s
#654587
1w
#654648
1?
#654660
0<
#654807
0u
#654838
0t
#654848
1o
#655138
1P
#655221
1u
#655712
1@
#657148
14
1'
#657471
11
1)
#659169
13
1(
#660000
0!
#660836
07
#661009
08
#670000
1!
#670730
17
#670917
18
#673288
1$!
#673296
0%!
#674058
0>
#674104
1;
#674701
1<
#680000
0!
#680836
07
#681009
08
#690000
1!
#690730
17
#690917
18
#693296
1%!
#694028
0;
#694112
1>
#694178
0A
#694624
0?
#694660
0<
#694714
1B
#695203
1C
#695672
0@
#700000
0!
#700836
07
#701009
08
#710000
1!
#710730
17
#710917
18
#713288
0$!
#713296
0%!
1#!
#714052
0B
#714058
0>
#714104
1;
#714126
1D
#714408
1A
#714474
0D
#714502
1M
#714568
0C
#714701
1<
#714869
0m
#714944
1B
#715433
1C
#720000
0!
#720836
07
#721009
08
#730000
1!
#730730
17
#730917
18
#733296
1%!
#734028
0;
#734112
1>
#734648
1?
#734660
0<
#735712
1@
#740000
0!
#740836
07
#741009
08
#750000
1!
#750730
17
#750917
18
#753288
1$!
#753296
0%!
#754058
0>
#754104
1;
#754701
1<
#760000
0!
#760836
07
#761009
08
#770000
1!
#770730
17
#770917
18
#773296
1%!
#774028
0;
#774112
1>
#774178
0A
#774244
1D
#774624
0?
#774660
0<
#774690
0B
#774780
1E
#775206
0C
#775672
0@
#775836
1F
#780000
0!
#780836
07
#781009
08
#790000
1!
#790730
17
#790917
18
#793288
0$!
1"!
#793296
0%!
0#!
#794058
0>
#794085
0D
#794104
1;
#794119
1c
#794134
1B
#794185
0d
#794251
1e
#794317
0f
#794383
1g
#794408
1A
#794623
1C
#794701
1<
#794895
0h
#794920
0B
#795309
0i
#795436
0C
#795483
0s
#795484
0n
#795663
1y
#795863
0o
#795866
1t
#795898
0F
#795953
0<
#796210
0u
#800000
0!
#800836
07
#801009
08
#810000
1!
#810730
17
#810917
18
#813288
0"!
#813720
0p
0v
#813727
1z
#814078
0c
#814144
1d
#814210
0e
#814276
1f
#814288
0M
#814342
0g
#814361
0E
#814454
1x
#814602
0t
#814605
1s
#814608
0w
#814609
0q
#814693
1m
#814878
1h
#814965
1t
#814969
0P
#815127
1P
#815151
0s
#815173
1i
#815183
1n
#815518
0t
#815548
1q
#815819
1<
#817347
12
1*
#817417
01
0)
#819214
03
0(
#820000
0!
#820836
07
#821009
08
#830000
1!
#830730
17
#830917
18
#833296
1%!
#834028
0;
#834112
1>
#834648
1?
#834660
0<
#835712
1@
#840000
0!
#840836
07
#841009
08
#850000
1!
#850730
17
#850917
18
#853288
1$!
#853296
0%!
#854058
0>
#854104
1;
#854701
1<
#860000
0!
#860836
07
#861009
08
#870000
1!
#870730
17
#870917
18
#873296
1%!
#874028
0;
#874112
1>
#874178
0A
#874624
0?
#874660
0<
#874714
1B
#875203
1C
#875672
0@
#880000
0!
#880836
07
#881009
08
#890000
1!
#890730
17
#890917
18
#893288
0$!
#893296
0%!
1#!
#894052
0B
#894058
0>
#894104
1;
#894126
1D
#894408
1A
#894474
0D
#894502
1M
#894568
0C
#894701
1<
#894869
0m
#894944
1B
#895325
0P
0x
#895367
1s
#895380
0i
#895384
0n
#895433
1C
#895691
0y
#895727
1t
#895759
0q
#896024
0<
0C
#900000
0!
#900836
07
#901009
08
#910000
1!
#910730
17
#910917
18
#913290
0r
#913296
0#!
#913699
1q
#913727
0z
#914141
0B
#914230
1u
#914291
1o
#914352
0O
#914357
1<
#914360
1w
#914528
0M
#915391
0s
#915413
1i
#917116
04
0'
#917320
02
0*
#920000
0!
#920836
07
#921009
08
#930000
1!
#930730
17
#930917
18
#933290
1r
#933296
1%!
#933719
0q
#933720
1p
1v
#934017
1m
#934028
0;
#934041
0t
#934112
1>
#934161
0u
#934235
0o
#934304
0w
#934308
1O
#934424
1u
#934463
1t
#934474
1q
#934479
1n
#934494
1s
#934587
1w
#934648
1?
#934660
0<
#934807
0u
#934838
0t
#934848
1o
#935138
1P
#935221
1u
#935712
1@
#937148
14
1'
#937471
11
1)
#939169
13
1(
#940000
0!
#940836
07
#941009
08
#950000
1!
#950730
17
#950917
18
#953288
1$!
#953296
0%!
#954058
0>
#954104
1;
#954701
1<
#960000
0!
#960836
07
#961009
08
#970000
1!
#970730
17
#970917
18
#973296
1%!
#974028
0;
#974112
1>
#974178
0A
#974624
0?
#974660
0<
#974714
1B
#975203
1C
#975672
0@
#980000
0!
#980836
07
#981009
08
#990000
1!
#990730
17
#990917
18
#993288
0$!
#993296
0%!
1#!
#994052
0B
#994058
0>
#994104
1;
#994126
1D
#994408
1A
#994474
0D
#994502
1M
#994568
0C
#994701
1<
#994869
0m
#994944
1B
#995433
1C
